…
Or I can use `slice()` and `as.character()`

``` r
fs::dir_info("data/covid-data") %>%
  dplyr::select(path) %>%
  dplyr::arrange(desc(path)) %>%
  dplyr::slice(1) %>%
  base::as.character() %>%
  readr::read_csv(.) %>%
  utils::head()
```

    #>  # A tibble: 6 x 18
    #>    Province_State Country_Region Last_Update           Lat  Long_ Confirmed
    #>    <chr>          <chr>          <dttm>              <dbl>  <dbl>     <dbl>
    #>  1 Alabama        US             2021-03-05 05:31:07  32.3  -86.9    498076
    #>  2 Alaska         US             2021-03-05 05:31:07  61.4 -152.      59138
    #>  3 American Samoa US             2021-03-05 05:31:07 -14.3 -170.          0
    #>  4 Arizona        US             2021-03-05 05:31:07  33.7 -111.     821108
    #>  5 Arkansas       US             2021-03-05 05:31:07  35.0  -92.4    323756
    #>  6 California     US             2021-03-05 08:30:53  36.1 -120.    3587567
    #>  # … with 12 more variables: Deaths <dbl>, Recovered <dbl>, Active <dbl>,
    #>  #   FIPS <dbl>, Incident_Rate <dbl>, Total_Test_Results <dbl>,
    #>  #   People_Hospitalized <lgl>, Case_Fatality_Ratio <dbl>, UID <dbl>,
    #>  #   ISO3 <chr>, Testing_Rate <dbl>, Hospitalization_Rate <lgl>

## `purrr` subsetting

The `purrr` package has some great functions for subsetting lists.

### `keep()`

`keep()` is a great one. Here is an example with `mtcars`

``` r
purrr::keep(.x = mtcars, function(x) {
  3 %in% x
})
```

    #>                      drat gear carb
    #>  Mazda RX4           3.90    4    4
    #>  Mazda RX4 Wag       3.90    4    4
    #>  Datsun 710          3.85    4    1
    #>  Hornet 4 Drive      3.08    3    1
    #>  Hornet Sportabout   3.15    3    2
    #>  Valiant             2.76    3    1
    #>  Duster 360          3.21    3    4
    #>  Merc 240D           3.69    4    2
    #>  Merc 230            3.92    4    2
    #>  Merc 280            3.92    4    4
    #>  Merc 280C           3.92    4    4
    #>  Merc 450SE          3.07    3    3
    #>  Merc 450SL          3.07    3    3
    #>  Merc 450SLC         3.07    3    3
    #>  Cadillac Fleetwood  2.93    3    4
    #>  Lincoln Continental 3.00    3    4
    #>  Chrysler Imperial   3.23    3    4
    #>  Fiat 128            4.08    4    1
    #>  Honda Civic         4.93    4    2
    #>  Toyota Corolla      4.22    4    1
    #>  Toyota Corona       3.70    3    1
    #>  Dodge Challenger    2.76    3    2
    #>  AMC Javelin         3.15    3    2
    #>  Camaro Z28          3.73    3    4
    #>  Pontiac Firebird    3.08    3    2
    #>   [ reached 'max' / getOption("max.print") -- omitted 7 rows ]
…
